SAA Práctica 0: Resumen estadístico
…
$Liante
numeric(0)

$Atractivo
numeric(0)

$Locura
numeric(0)

3.10 Representa en una sola gráfica, los diagramas de caja y bigote de todas las variables numéricas

lqsa

# A tibble: 30 × 9
   Nombre       Motes Poder Convivencia Liante Atractivo Locura Grupo_edad Sexo 
   <chr>        <chr> <dbl>       <dbl>  <dbl>     <dbl>  <dbl> <chr>      <chr>
 1 Ongombo      Mond…     9          17     36        23     35 Adulto     Homb…
 2 Violeta      La c…     3           2     30        12    100 Adulto     Mujer
 3 Javi         El p…    15           4     56        16     95 Adulto     Homb…
 4 Estela Reyn… La p…     2           3    154        28    100 Adulto     Mujer
 5 La chusa     La c…     3           5     18        16     99 Adulto     Mujer
 6 Vicente      El h…     2          24     52        11     18 Anciano    Homb…
 7 Enrique Pas… Seño…    17           8     44         5      5 Adulto     Homb…
 8 Amador       Capi…     3           5     70        20     90 Adulto     Homb…
 9 Doña Fina    La v…     5          11    158         2     88 Anciano    Mujer
10 Berta        La b…    15           9     14        16     15 Adulto     Mujer
# ℹ 20 more rows
…
